<?xml version="1.0" encoding="utf-8"?>
<!-- Generator: Adobe Illustrator 21.0.0, SVG Export Plug-In . SVG Version: 6.00 Build 0)  -->
<svg version="1.1" id="Layer_1" xmlns="http://www.w3.org/2000/svg" xmlns:xlink="http://www.w3.org/1999/xlink" x="0px" y="0px"
	 viewBox="0 0 933 163.5" style="enable-background:new 0 0 933 163.5;" xml:space="preserve">
<style type="text/css">
	.st0{fill:#FCFDFD;}
	.st1{fill:#054578;}
	.st2{fill:#014377;}
	.st3{fill:#044578;}
	.st4{fill:#088CCD;}
	.st5{fill:#0A8DCD;}
	.st6{fill:#1A95D0;}
	.st7{fill:#1090CE;}
	.st8{fill:#D5F587;}
	.st9{fill:#E9F787;}
	.st10{fill:#3167F6;}
	.st11{fill:#02BAE3;}
	.st12{fill:#0782FA;}
	.st13{fill:#ACDB87;}
	.st14{fill:#6381C3;}
	.st15{fill:#02D8FC;}
</style>
<g>
	<path class="st0" d="M464.7,151.8c-135.7,0-271.3,0-407,0.1c-4.3,0-4.9-1.1-4.9-5c0.2-45.2,0.1-90.3,0-135.5c0-3.3,0.8-3.8,3.9-3.8
		c271.8,0.1,543.7,0.1,815.5,0c3.6,0,4.1,0.9,4.1,4.2c-0.1,45.3-0.1,90.7,0,136c0,3.6-0.8,4.1-4.2,4.1
		C736.3,151.7,600.5,151.8,464.7,151.8z M173.8,56.3c-2.6-2.5-5.9-2.5-9.2-2.8c-4.7,1.4-8.7,4.7-13.8,5.2c-0.2,0-0.3,1.1-0.5,1.7
		l0-0.1c-2.8,0.4-5.7-0.7-8.4,0.8c-3.5,0.6-6.9,1.4-10,3.4c-4.3,10.1-8,20.3-11.1,30.8c-0.9,1.3-1.4,2.8-1.4,4.5
		c4.1,11.3,9.8,21.8,14.9,32.6c2.6,2.6,5.8,2.2,9,2c1.7,1.4,3.7,1.1,5.7,1.1c6.6,2.6,13.7,3.2,20.6,4.1c2.1,0.6,3.4-1.1,5-2
		c8.1-4.7,15.6-10.4,24.1-14.5c0,2,0.1,4.1,0,6.1c-0.2,4.7,2,6.9,6.7,6.7c1.2-0.1,2.4,0,3.5,0c7.6,0,8.4-0.8,8.4-8.5
		c-0.1-12.1,0.6-24.2-0.6-36.3c1.5-0.2,1.7,0.8,2,1.5c6.6,13.3,15.1,25.5,22.5,38.4c2,3.5,4.6,5.2,8.6,4.9c2.4-0.1,4.7,0,7.1,0
		c4.2,0,6.1-2,6.1-6.2c-0.1-21-0.1-41.9,0-62.9c0-4.5-2.2-6.5-6.6-6.3c-1.7,0-3.4,0-5.1,0c-5.4,0.1-6.9,1.5-6.9,6.9
		c0,11.5,0.1,23,0.1,34.5c0,1.2,0.9,2.6-0.8,3.6c-7-13.8-15.5-26.6-23.2-39.8c-1.9-3.4-4.5-5.2-8.5-5.2c-15-0.1-13.3,0.4-13.7,12.6
		c-2.9-1.2-3.8-4.3-5.8-6.4c-0.8-3-2.6-5.3-4.8-7.3c-3-1.2-6-2.4-9.4-1.9C177.1,57,175.4,56.6,173.8,56.3z M772.7,92.2
		c8.9,12.7,17.9,25.4,26.8,38.1c1.2,1.7,2.4,3.5,4.8,2.9c2.9-0.8,1.8-3.3,1.8-5.1c0.1-13.5,0.1-27.1,0-40.6c0-1.7,0.7-4.1-2.2-4.2
		c-3.2-0.2-2.7,2.3-2.7,4.3c0,10.7,0,21.3,0,32c0,1.1,0.8,2.7-1.1,3.5c-0.5-0.7-1-1.4-1.5-2.1c-8.3-11.7-16.6-23.4-24.9-35.2
		c-1.2-1.6-2.4-2.9-4.6-2.4c-2.5,0.5-1.8,2.5-1.8,4.1c0,14,0,28.1,0,42.1c0,1.6-0.4,3.6,2.2,3.8c2.5,0.1,2.5-1.8,2.5-3.5
		c-0.1-12.3-0.2-24.7-0.3-37C772.1,92.6,772.4,92.4,772.7,92.2z M308.8,24c-1.9-3.1-4.9-3.1-8-3c-3.5,0.1-7.1,0-10.7,0
		c-9.3,0.2-14.7,5-14.8,13.2c-0.1,8.9,6.2,15.2,15.2,15.3c2.5,0,5.1,0,7.6,0c9.7-0.2,8.9,1.8,9-9.4c0-3,0.2-5.7-4.3-5.8
		c-4.1-0.1-5.6,1.6-5.1,5.4c0.4,3.1-1.2,3.7-3.8,3.5c-5.4-0.3-8.5-4.1-8.1-10.1c0.4-6.3,4.1-9.9,9.6-9.4c0.8,0.1,1.9-0.2,2.2,0.8
		c2,7,6.3,3.9,10.2,2.3c2,7.8,3.9,15.7,6.1,23.5c1.1,4,4.2,5.7,8.3,4.7c7.2-1.8,14.4-3.7,21.5-5.8c4.9-1.4,6.3-4.2,5-9.3
		c-1.7-6.4-3.4-12.7-5.2-19c-1.6-5.8-4.3-7.3-10.1-5.9c-6.4,1.6-12.7,3.3-19.1,5.1C312.1,20.8,309.6,21.2,308.8,24z M316.6,106.1
		c-7.3-13.9-16-26.8-23.7-40.2c-2.3-4-5.3-5.9-9.9-5.5c-2,0.2-4.1,0.1-6.1,0c-4.2-0.1-6.4,2-6.4,6.1c0,21.1,0,42.3,0,63.4
		c0,2.5,0.7,5,3.5,5.5c3.8,0.8,7.8,0.6,11.6,0.1c2.3-0.4,3.5-2.3,3.6-4.4c0-12,0.7-24-0.4-36c-0.1-1.1-1-2.5,0.3-3.1
		c1.5-0.7,1.8,1,2.3,2c5.8,11.3,13.3,21.6,19.1,32.8c3.7,7.2,8.6,9.9,16.6,9.1c6.8-0.7,8-1.3,8-8.1c0-19.8,0-39.6,0-59.4
		c0-6.7-1.4-8.1-7.9-8.1c-9.7-0.1-10.9,0.7-10.9,8.2C316.3,81.1,316,93.6,316.6,106.1z M430.1,59.2c-17.5-0.2-31.1,7.9-37.6,21.7
		c-7.8,16.6-3.2,37.6,10.7,48.2c14.3,11,38.9,10.6,52.1-0.7c3.5-3,3-6.1,0.5-9.3c-2.5-3.2-4.4-8-9.9-4.7c-3.8,2.3-7.6,4.4-12,5.3
		c-12.5,2.7-23.6-5.2-25.6-18.3c-2.1-13.5,5.6-23.9,18.6-25.2c6.1-0.6,11.6,1.2,17,4c4.8,2.5,6.3,1.5,10.3-5.3c2.4-4,1.9-7-2-9.4
		C445.1,61.3,437.4,59.1,430.1,59.2z M57.9,97.5c0.4,16,6.3,28.8,21.1,35.6c15.6,7.1,30.9,5.5,45.1-4.5c4-2.8,3.3-6.1,0.8-9.6
		c-4.3-6.1-5.9-6.9-10.4-4.2c-3.6,2.2-7.3,4.1-11.5,5c-12.6,2.6-23.3-5.2-25.5-18.5c-2.2-13.2,5.8-23.8,18.7-25.1
		c6.1-0.6,11.6,1.3,17,4.1c4.7,2.4,6,1.5,10-5.1c2.3-3.8,2.6-7-1.5-9.5c-14.1-8.4-28.9-9.3-43.5-2C64.5,70.7,58.5,82.7,57.9,97.5z
		 M547,59.2c-5.6-0.2-11.3,1-16.5,4.1c-14.2,8.5-14.7,27.4-0.9,36.5c4.1,2.7,8.7,4.4,13.2,6.4c2.8,1.2,5.5,2.7,8,4.3
		c1.7,1.1,2.9,2.9,2.4,5.2c-0.5,2.2-2.1,3.3-4.2,3.9c-5.3,1.5-10-0.2-14.6-2.5c-8.3-4.1-9-4-14,3.9c-2.8,4.4-2.5,6.8,2.1,9.6
		c9.6,5.9,20,8,31.1,5.7c9.8-2.1,17-9.8,18.2-18.8c1.4-10.6-2.4-17.6-12.7-22.9c-3.1-1.6-6.5-2.9-9.7-4.4c-2.7-1.3-5.5-2.5-8.1-4.1
		c-1.9-1.2-3.4-3.1-2.8-5.5c0.6-2.6,2.7-3.7,5.2-4.1c5.3-0.8,10,0.7,14.6,3c5.3,2.5,6.6,1.7,9.9-4.7c3-5.8,2.5-8.4-2.3-11
		C560.2,60.7,554,59.2,547,59.2z M342,98.2c0,10.3,0.1,20.6,0,31c0,4.3,1.5,6.7,6.2,6.7c12.3-0.1,24.7,0,37,0c5.5,0,6.1-3.5,6.1-7.8
		c0-4.3-0.4-7.9-6-7.9c-6.3,0.1-12.5-0.4-18.8,0.1c-5.1,0.4-6.2-1.4-6-6.1c0.4-8.2,0.1-8.2,8.3-8.2c2.4,0,4.7,0,7.1,0
		c6.6-0.1,8-1.5,8-8.1c0-6.5-1.4-7.9-8.1-7.9c-1.9,0-3.7,0-5.6,0c-9.9,0-9.7,0-9.7-9.8c0-3.4,1.3-3.9,4.1-3.8
		c6.1,0.2,12.2,0.2,18.3,0c5.7-0.2,7.1-2.1,6.9-8.7c-0.1-5.6-1.7-7.2-7.3-7.3c-11,0-22,0-33,0c-6.4,0-7.5,1.2-7.6,7.8
		C341.9,78.2,341.9,88.2,342,98.2z M479.5,104.3c0,8.1,0,16.2,0,24.3c0,2.2-0.1,4.8,2,5.9c4.4,2.4,9.3,1.8,13.8,0.6
		c3.6-0.9,3.1-4.8,3.1-7.8c0-15.5,0.1-31.1-0.1-46.6c0-3.6,1-4.7,4.5-4.4c3.4,0.3,6.8,0.2,10.1,0c5.5-0.2,6.9-2.1,6.8-8.3
		c0-5.8-1.6-7.6-6.9-7.7c-16-0.1-32.1-0.1-48.1,0c-5,0-6.6,1.9-6.6,7.4c-0.1,6.4,1.3,8.3,6.6,8.6c3.7,0.2,7.4,0.2,11.1,0
		c2.8-0.2,3.8,0.7,3.7,3.6C479.3,88.1,479.5,96.2,479.5,104.3z M368.2,38.9c-1.3-4.4-2.1-7.3-2.9-10.2c-2.4-8.3-2.4-8.2-11.3-7.9
		c-2.7,0.1-3.5,1-3.4,3.6c0.1,6.9,0.1,13.8,0,20.8c-0.1,3.4,1.5,4.2,4.6,4.3c3.4,0,4.5-1.3,4.3-4.5c-0.2-2.7,0-5.5,0-8.2
		c2.1,3.2,3.5,6.4,4.4,9.7c0.7,2.4,2.1,2.9,4.4,3c2.5,0.1,3.6-1,4.3-3.1c1-3.3,2.3-6.4,3.4-9.7c0.9,3.5,0.8,6.7,0.9,9.8
		c0.1,2.9,2.2,3,4.3,2.9c2-0.1,4.4,0.4,4.5-2.7c0.1-6.9,0.3-13.9-0.2-20.7c-0.3-4-3.9-4.8-7.6-5.1c-3.8-0.3-5.4,1-6.2,4.7
		C371,29.6,369.7,33.6,368.2,38.9z M447.3,49.1c-0.2-0.6-0.3-1.4-0.7-1.8c-2.6-3-3.6-5.2,0.4-8.4c3.4-2.8,3.6-7.5,1.6-11.7
		c-1.9-4-5.1-6.1-9.6-6.2c-5.4,0-10.8,0-16.2,0c-1.7,0-3.8,0-4.1,2.1c-0.4,2.9-1.1,6.1,0.4,8.8c0.8,1.5,8.5,0.4,8.4-1.1
		c-0.3-6.6,4.5-3.9,7.4-4c2.9-0.1,4.2,2.1,4.2,4.7c0,2.6-1.4,4.5-4.3,4.6c-2.5,0.1-5.1,0.1-7.6,0.1c-9.8,0-9.7,0.1-8.8,9.8
		c0.3,3.1,1.9,3.5,4.4,3.4c2.3-0.1,5,0.5,4.9-3.3c0-1.4-0.4-3.3,2-3.3c1.8-0.1,3.9-0.5,4.9,1.6C437.3,50,442,50,447.3,49.1z
		 M636.4,108.1c0,7.1,0.1,14.2,0,21.3c0,2.6,0.6,4.1,3.7,4.1c7.4-0.1,14.9-0.1,22.3,0c1.6,0,3.3-0.3,3.4-2.2
		c0.2-2.4-1.8-2.5-3.5-2.5c-5.6,0-11.2-0.1-16.7,0c-3,0.1-4.4-0.7-4.1-3.9c0.2-3.7,0.2-7.4,0-11.1c-0.2-3,1.1-3.7,3.8-3.6
		c4,0.2,8.1,0,12.2,0c1.5,0,2.7-0.3,2.8-2.1c0.1-1.9-1.1-2.2-2.6-2.2c-0.8,0-1.7,0-2.5,0c-14.4-0.1-14.4-0.1-13.6-14.7
		c0.1-2.7,1-3.5,3.6-3.4c5.2,0.1,10.5,0.1,15.7,0c1.6,0,3.7,0.4,3.7-2.2c0-2.5-2-2.4-3.6-2.4c-6.8,0-13.5,0.1-20.3-0.1
		c-3.1-0.1-4.1,1.2-4,4.2C636.5,94.2,636.4,101.1,636.4,108.1z M583.7,108.2c0,7.1,0,14.2,0,21.3c0,1.6-0.4,3.7,2.1,3.8
		c2.8,0.2,2.7-1.9,2.7-3.8c0-5.1,0.2-10.1,0-15.2c-0.1-3.2,1.1-4,4.1-4c7.1,0.2,14.2,0.2,21.3,0c2.6-0.1,3.6,0.7,3.5,3.4
		c-0.2,5.2-0.1,10.5,0,15.7c0,1.9-0.3,4,2.6,3.9c2.4-0.1,2.4-1.9,2.4-3.7c0-14.2,0-28.4,0-42.6c0-2,0-3.9-2.7-3.8
		c-2.5,0.1-2.2,2-2.2,3.7c0,5.4-0.1,10.8,0,16.2c0,2.2-0.6,3-2.9,2.9c-7.6-0.1-15.2-0.1-22.8,0c-2.4,0-3.3-0.8-3.2-3.2
		c0.1-4.9,0.1-9.8,0-14.7c0-2,1-5-2.5-4.9c-3.5,0.1-2.2,3.2-2.2,5.1C583.6,95,583.7,101.6,583.7,108.2z M145.5,49.5c2,0,4,0.1,6.1,0
		c6.9-0.3,9.4-2.6,9.7-9.5c0.2-3.5,0.2-7.1-0.1-10.6c-0.5-5.5-2.9-7.8-8.4-8.2c-3.5-0.3-7.1-0.1-10.6-0.1
		c-10.3,0-12.3,2.1-12.3,12.5C129.7,49,130.3,49.5,145.5,49.5z M820.2,107.9c0,7.1,0,14.2,0,21.3c0,1.8-0.5,4.1,2.4,4
		c2.8-0.1,2.4-2.3,2.4-4.2c0-5.4,0-10.8,0-16.2c0-1.4-0.5-3.4,1.8-3.5c3.3-0.2,6.5-0.8,8.6,3.3c3.2,6.3,7.2,12.2,10.8,18.3
		c1.2,2,3,3.2,5,2c2.2-1.4,0.1-3-0.6-4.3c-3.6-6.1-7.2-12.3-11.1-18.2c-1.8-2.7-1.6-4.6,0.2-7.2c3.6-5.3,6.9-10.8,10.3-16.3
		c0.6-1,2.2-2.1,0.6-3.5c-1.1-1-2.7-0.8-3.8,0.1c-0.9,0.7-1.5,1.8-2.1,2.8c-3.3,5.3-6.8,10.5-9.8,16c-2,3.7-5.2,2.5-8,2.4
		c-3.4-0.1-1.7-3.1-1.8-4.8c-0.3-4.2-0.1-8.5-0.1-12.7c0-1.8,0.4-4.1-2.3-4.2c-3.3-0.1-2.5,2.5-2.5,4.4
		C820.2,94.4,820.2,101.2,820.2,107.9z M223.7,21.5c-6.3-0.9-11.1-0.9-14.1,5c-0.9,1.8-1.9,4.9-4.3,4.3c-2.8-0.7-1.2-3.8-1.2-5.7
		c0-4-2.5-4.1-5.4-4.1c-3,0-4.8,0.6-4.7,4.2c0.2,6.7,0.2,13.5,0,20.2c-0.1,3.7,1.8,4.1,4.8,4.1c3,0,5.5-0.2,5.2-4.1
		c-0.1-1.2,0-2.4,0-3.5c0-0.8-0.1-1.8,0.8-2.2c1.1-0.5,1.9,0.3,2.5,1.1c0.8,1.1,1.6,2.2,2.4,3.3c4.2,6,5.9,6.6,13.5,4.5
		c-2.8-3.5-5.4-7-8.3-10.2c-2.1-2.3-1.8-3.8,0.1-5.9C217.8,29.1,220.5,25.6,223.7,21.5z M109.9,21.6c-2.2,0-4.4-0.2-6.6,0
		c-1.9,0.2-4.8-1.2-5.4,1.2c-0.7,2.8-0.9,6.3,0.2,9c0.9,2.2,4.3,0.7,6.5,0.9c1.1,0.1,2.2-0.4,2.1-1.6c-0.7-5.5,3.2-4.2,6.1-4.2
		c3.3-0.1,5.1,1.5,5.2,4.8c0.1,3.4-2.1,4.7-5.2,4.8c-2.2,0.1-4.4,0-6.6,0c-9.6,0-9.6,0-8.6,9.4c0,0.2,0,0.3,0,0.5
		c0.1,2.9,2,3.2,4.2,3c2-0.1,5.1,0.7,4.8-2.7c-0.3-3.9,1.8-4,4.6-3.9c2.4,0.1,4.7,0.1,7.1,0c6-0.4,10.6-5.2,10.4-10.9
		c-0.1-5.8-4.7-10.2-10.9-10.4C115.3,21.5,112.6,21.6,109.9,21.6z M725.1,82.5c-9.5,0.1-15.2,3.9-16.8,10.3
		c-1.6,6.2,1.3,11.3,8.9,15.1c3.3,1.7,6.8,3,10,4.8c3.9,2.2,6.7,5.3,5.2,10.3c-1.3,4.3-5.6,6.8-10.9,6.2c-3.6-0.4-6.9-1.7-9.8-3.9
		c-1.2-0.9-2.4-1.1-3.5,0.3c-1.2,1.6-0.7,2.8,0.8,3.8c3.7,2.7,7.8,3.9,12.2,4.3c7.8,0.7,14.3-3.3,16.1-10c1.9-6.7-1-12-8.5-15.8
		c-3.9-2-7.9-3.7-11.8-5.8c-3-1.7-4.7-4.5-4-8c0.7-3.5,3-5.5,6.4-6.5c4.5-1.3,8.7-0.4,12.6,2c1.5,0.9,2.8,1.2,3.8-0.6
		c0.9-1.7,0.1-2.8-1.4-3.7C731,83.4,727.3,82.5,725.1,82.5z M181,49.3c2.4,0,4.7-0.1,7.1,0c2.4,0.2,3.4-0.6,3.2-3.1
		c-0.2-2.2,0.2-4.6-3-4.7c-1.8,0-3.5,0.1-5.4,0.9c-3.5,1.6-7.2,1.4-9.5-2c-2.5-3.6-2.6-7.9,0.3-11.3c2.5-3,6.1-3.3,9.5-1
		c1.7,1.2,3.6,0.8,5.4,0.7c3.1-0.1,2.6-2.4,2.7-4.4c0.1-2.1-0.2-3.6-2.9-3.5c-4.9,0.2-9.8-0.2-14.7,0.2c-6.6,0.5-10.7,5-11.1,11.6
		C161.8,43.9,167.7,49.3,181,49.3z M239.5,49.4C239.5,49.4,239.5,49.4,239.5,49.4c2.4,0,4.7,0,7.1,0c2.1,0,3.1-1.1,3.1-3.1
		c0-2-1.1-3.1-3.2-3.1c-2.9,0-5.7,0.1-8.6-0.1c-4.8-0.3-7.2-3-7.3-7.9c-0.1-4.9,2.3-7.8,7-8.2c2.7-0.2,5.4-0.1,8.1-0.1
		c2,0.1,3.4-0.5,3.5-2.7c0.1-2.1-1-3.2-3-3.1c-4.9,0.1-9.8-0.2-14.7,0.3c-7.6,0.9-11.5,6-11.1,13.7c0.3,7.5,5.7,13.7,12.6,14.2
		C235.1,49.5,237.3,49.4,239.5,49.4z M406.3,49.4c2.4,0,4.7,0,7.1,0c2,0,3.2-0.6,3.3-2.9c0-2.3-1-3.4-3.4-3.4
		c-2.5,0.1-5.1,0.1-7.6,0c-5.4-0.2-7.7-2.5-7.8-7.8c-0.1-5.5,2.3-8.1,7.8-8.4c2.5-0.1,5.1,0,7.6,0c1.8,0,2.9-0.6,3-2.6
		c0.1-2.2-1-3.2-3-3.1c-5.4,0.1-10.8-0.6-16.2,0.5c-5.7,1.3-9,5.2-9.6,11C386.6,43.5,393.2,49.4,406.3,49.4z M675.3,108.1
		c0,7.1,0.1,14.2,0,21.3c0,2.7,0.8,4.1,3.7,4.1c6.9-0.1,13.8,0,20.8,0c1.7,0,3.7-0.1,3.6-2.4c0-2.4-2.2-2.2-3.8-2.2
		c-5.1,0-10.1-0.2-15.2,0.1c-3.5,0.2-4.2-1.1-4.2-4.3c0.2-11.6,0.2-23.3,0-34.9c0-2.2,2-6.3-2.5-6.3c-4,0-2.3,3.9-2.3,6
		C675.2,95.6,675.3,101.8,675.3,108.1z M254.9,37.8c0,2.7,0.1,5.4,0,8.1c-0.2,3.6,2.1,3.5,4.6,3.6c2.6,0,4.7-0.2,4.6-3.7
		c-0.1-4.5,0.2-9.1-0.1-13.6c-0.3-3.9,0.4-6.1,5-5.4c1.9,0.3,3.2-0.6,3.3-2.8c0-2.2-1.2-3-3.1-3c-5,0-10.1,0-15.1,0
		c-1.4,0-2.8,0.3-3,2c-0.3,1.6-0.2,3.4,1.7,3.6c2.5,0.3,2.2,1.9,2.2,3.6C254.9,32.8,254.9,35.3,254.9,37.8z M861.7,108.6
		c0,6.9,0,13.9,0,20.8c0,1.8-0.3,4,2.6,3.9c2.4-0.1,2.4-1.9,2.4-3.7c0-14.4,0-28.7,0-43.1c0-1.9-0.3-3.5-2.7-3.4
		c-2.5,0.1-2.3,1.9-2.4,3.7C861.7,94.1,861.7,101.3,861.7,108.6z M753.3,108.6c0-6.9,0-13.8,0-20.8c0-1.9,0.8-4.5-2.4-4.6
		c-3.2-0.2-2.6,2.4-2.6,4.3c0,13.8,0,27.7,0,41.5c0,1.8-0.5,4.1,2.3,4.2c3.1,0.1,2.6-2.4,2.7-4.4
		C753.3,122.1,753.3,115.4,753.3,108.6z M240.3,37c2.5,0.3,4.4-0.4,4.4-3.6c-0.1-2.9-1.9-3.4-4.4-3.4c-2.7,0-4.7,0.4-4.6,3.7
		C235.7,36.7,237.6,37.2,240.3,37z M407.5,37c2.5,0.3,4.1-0.6,4.1-3.5c0-3-1.8-3.5-4.3-3.5c-2.7,0-4.5,0.6-4.4,3.8
		C403,37,405.1,37.1,407.5,37z M452.4,21.1c-1.3,0.2-2.2,0.8-2.3,2.2c-0.1,1.3,0.7,2.2,2.1,2.3c1.6,0.1,2.6-0.7,2.5-2.3
		C454.7,21.9,453.7,21.3,452.4,21.1z"/>
	<path class="st1" d="M316.6,106.1c-0.6-12.5-0.2-25-0.2-37.5c0-7.5,1.2-8.3,10.9-8.2c6.5,0.1,7.9,1.4,7.9,8.1c0,19.8,0,39.6,0,59.4
		c0,6.8-1.2,7.4-8,8.1c-7.9,0.8-12.8-1.9-16.6-9.1c-5.8-11.2-13.3-21.5-19.1-32.8c-0.5-1-0.8-2.7-2.3-2c-1.3,0.6-0.4,2-0.3,3.1
		c1.1,12,0.4,24,0.4,36c0,2.1-1.2,4-3.6,4.4c-3.9,0.6-7.8,0.7-11.6-0.1c-2.8-0.6-3.5-3.1-3.5-5.5c-0.1-21.1-0.1-42.3,0-63.4
		c0-4.1,2.2-6.2,6.4-6.1c2,0.1,4.1,0.2,6.1,0c4.6-0.4,7.6,1.5,9.9,5.5C300.6,79.3,309.3,92.2,316.6,106.1z"/>
	<path class="st2" d="M198.7,73c0.4-12.3-1.3-12.8,13.7-12.6c4.1,0,6.6,1.8,8.5,5.2c7.6,13.3,16.2,26,23.2,39.8
		c1.6-0.9,0.8-2.4,0.8-3.6c0-11.5-0.1-23-0.1-34.5c0-5.4,1.5-6.8,6.9-6.9c1.7,0,3.4,0,5.1,0c4.4-0.1,6.6,1.8,6.6,6.3
		c-0.1,21-0.1,41.9,0,62.9c0,4.2-1.9,6.3-6.1,6.2c-2.4,0-4.7-0.1-7.1,0c-4,0.2-6.6-1.5-8.6-4.9c-7.4-12.9-15.9-25.1-22.5-38.4
		c-0.3-0.7-0.5-1.7-2-1.5c1.1,12.1,0.4,24.2,0.6,36.3c0.1,7.7-0.8,8.5-8.4,8.5c-1.2,0-2.4-0.1-3.5,0c-4.7,0.2-6.9-1.9-6.7-6.7
		c0.1-2,0-4.1,0-6.1c0.8-0.9,1.6-1.7,2.4-2.6c1.6-0.5,1.7-1.9,1.7-3.2c0.3-6.8,0.6-13.6,1-20.4c-0.5-1.2-0.7-2.4-0.4-3.8
		c0.7-3.4,0.6-6.9-0.5-10.2C201.6,79.5,200.1,76.2,198.7,73z"/>
	<path class="st3" d="M430.1,59.2c7.4-0.1,15.1,2,22.2,6.4c4,2.4,4.4,5.4,2,9.4c-4.1,6.8-5.5,7.9-10.3,5.3c-5.4-2.8-10.8-4.7-17-4
		c-12.9,1.3-20.6,11.7-18.6,25.2c2,13.1,13.1,20.9,25.6,18.3c4.4-0.9,8.2-3,12-5.3c5.5-3.3,7.4,1.5,9.9,4.7c2.5,3.2,3,6.3-0.5,9.3
		c-13.3,11.3-37.8,11.7-52.1,0.7c-13.9-10.6-18.5-31.6-10.7-48.2C399,67.1,412.6,59.1,430.1,59.2z"/>
	<path class="st3" d="M57.9,97.5c0.6-14.8,6.7-26.8,20.3-33.6c14.6-7.4,29.4-6.4,43.5,2c4.2,2.5,3.9,5.7,1.5,9.5
		c-4,6.6-5.3,7.5-10,5.1c-5.4-2.8-10.8-4.7-17-4.1c-13,1.2-20.9,11.8-18.7,25.1c2.2,13.3,12.9,21.1,25.5,18.5
		c4.2-0.9,7.9-2.8,11.5-5c4.5-2.7,6.1-1.9,10.4,4.2c2.5,3.5,3.2,6.8-0.8,9.6c-14.2,9.9-29.5,11.6-45.1,4.5
		C64.2,126.3,58.3,113.5,57.9,97.5z"/>
	<path class="st3" d="M547,59.2c7,0,13.2,1.5,18.9,4.6c4.8,2.6,5.3,5.2,2.3,11c-3.3,6.4-4.6,7.2-9.9,4.7c-4.7-2.2-9.4-3.8-14.6-3
		c-2.5,0.4-4.6,1.5-5.2,4.1c-0.6,2.5,0.9,4.3,2.8,5.5c2.6,1.6,5.4,2.8,8.1,4.1c3.2,1.5,6.5,2.7,9.7,4.4
		c10.3,5.4,14.1,12.3,12.7,22.9c-1.2,9-8.4,16.6-18.2,18.8c-11.1,2.4-21.5,0.3-31.1-5.7c-4.6-2.8-4.9-5.2-2.1-9.6
		c5-7.9,5.8-8,14-3.9c4.6,2.3,9.3,4,14.6,2.5c2.1-0.6,3.7-1.7,4.2-3.9c0.5-2.3-0.7-4.1-2.4-5.2c-2.5-1.6-5.2-3.1-8-4.3
		c-4.5-2-9-3.7-13.2-6.4c-13.8-9.1-13.3-28,0.9-36.5C535.7,60.2,541.4,59,547,59.2z"/>
	<path class="st2" d="M342,98.2c0-10,0-20,0-29.9c0-6.6,1.2-7.8,7.6-7.8c11,0,22,0,33,0c5.6,0,7.2,1.7,7.3,7.3
		c0.1,6.6-1.3,8.6-6.9,8.7c-6.1,0.2-12.2,0.2-18.3,0c-2.9-0.1-4.1,0.4-4.1,3.8c0,9.8-0.2,9.8,9.7,9.8c1.9,0,3.7,0,5.6,0
		c6.7,0,8.1,1.4,8.1,7.9c0,6.5-1.5,8-8,8.1c-2.4,0-4.7,0-7.1,0c-8.2,0-7.9,0-8.3,8.2c-0.2,4.8,0.9,6.6,6,6.1
		c6.2-0.5,12.5-0.1,18.8-0.1c5.6-0.1,6,3.6,6,7.9c0,4.3-0.5,7.9-6.1,7.8c-12.3,0-24.7,0-37,0c-4.6,0-6.2-2.4-6.2-6.7
		C342,118.8,342,108.5,342,98.2z"/>
	<path class="st1" d="M479.5,104.3c0-8.1-0.1-16.2,0.1-24.3c0.1-2.9-0.9-3.8-3.7-3.6c-3.7,0.2-7.4,0.2-11.1,0
		c-5.3-0.3-6.7-2.2-6.6-8.6c0.1-5.5,1.6-7.4,6.6-7.4c16-0.1,32.1-0.1,48.1,0c5.3,0,6.8,1.8,6.9,7.7c0.1,6.3-1.4,8.1-6.8,8.3
		c-3.4,0.2-6.8,0.3-10.1,0c-3.5-0.3-4.6,0.8-4.5,4.4c0.2,15.5,0.1,31.1,0.1,46.6c0,3,0.5,6.9-3.1,7.8c-4.5,1.1-9.4,1.8-13.8-0.6
		c-2.1-1.1-2-3.7-2-5.9C479.5,120.5,479.5,112.4,479.5,104.3z"/>
	<path class="st4" d="M308.8,24c0.8-2.8,3.3-3.2,5.5-3.8c6.3-1.8,12.7-3.5,19.1-5.1c5.9-1.5,8.5,0.1,10.1,5.9
		c1.8,6.3,3.5,12.7,5.2,19c1.3,5.1-0.1,7.9-5,9.3c-7.1,2.1-14.3,4-21.5,5.8c-4.1,1-7.1-0.6-8.3-4.7c-2.2-7.8-4.1-15.6-6.1-23.5
		C308.9,26.2,308.7,25,308.8,24z M319.8,42.2c0.9,1.7-2.2,5.1,1.8,5.9c2,0.4,4.3-0.2,5.3-2.9c1.7-4.4,4.9-5.1,8.7-2
		c2.3,1.9,4.6,1.1,6.5-0.3c2-1.5-0.1-3-0.9-4.3c-3.1-5-6.5-9.9-9.5-14.9c-1.5-2.5-3.2-3.5-6.2-2.7c-2.8,0.8-4.3,2.1-4.5,5.2
		C320.8,31.5,320.3,36.7,319.8,42.2z"/>
	<path class="st5" d="M368.2,38.9c1.5-5.3,2.8-9.3,3.6-13.4c0.7-3.6,2.4-5,6.2-4.7c3.7,0.3,7.3,1.1,7.6,5.1
		c0.5,6.9,0.3,13.8,0.2,20.7c0,3-2.5,2.6-4.5,2.7c-2.1,0.1-4.2,0-4.3-2.9c-0.1-3.2,0-6.4-0.9-9.8c-1.1,3.2-2.4,6.4-3.4,9.7
		c-0.7,2.2-1.8,3.2-4.3,3.1c-2.3-0.1-3.7-0.6-4.4-3c-1-3.3-2.3-6.5-4.4-9.7c0,2.7-0.1,5.5,0,8.2c0.2,3.2-0.9,4.6-4.3,4.5
		c-3.1,0-4.7-0.8-4.6-4.3c0.1-6.9,0.1-13.8,0-20.8c-0.1-2.6,0.7-3.5,3.4-3.6c8.9-0.3,8.9-0.4,11.3,7.9
		C366.1,31.6,366.9,34.5,368.2,38.9z"/>
	<path class="st5" d="M771.8,92.8c0.1,12.3,0.2,24.7,0.3,37c0,1.7,0,3.6-2.5,3.5c-2.5-0.1-2.2-2.1-2.2-3.8c0-14,0-28.1,0-42.1
		c0-1.6-0.7-3.6,1.8-4.1c2.1-0.4,3.4,0.8,4.6,2.4c8.3,11.7,16.6,23.5,24.9,35.2c0.5,0.7,1,1.4,1.5,2.1c1.9-0.8,1.1-2.4,1.1-3.5
		c0.1-10.7,0-21.3,0-32c0-2-0.4-4.4,2.7-4.3c2.9,0.2,2.2,2.5,2.2,4.2c0,13.5,0.1,27.1,0,40.6c0,1.8,1.1,4.3-1.8,5.1
		c-2.5,0.7-3.6-1.2-4.8-2.9c-8.9-12.7-17.9-25.4-26.8-38.1c0-0.5-0.2-1-0.8-0.7C771.7,91.6,771.8,92.3,771.8,92.8z"/>
	<path class="st5" d="M447.3,49.1c-5.3,0.9-10,0.9-12.7-4.7c-1-2.1-3.1-1.7-4.9-1.6c-2.3,0.1-2,1.9-2,3.3c0.1,3.8-2.5,3.2-4.9,3.3
		c-2.5,0.1-4.1-0.3-4.4-3.4c-0.9-9.7-1-9.8,8.8-9.8c2.5,0,5.1,0,7.6-0.1c2.9-0.1,4.3-2,4.3-4.6c0-2.6-1.3-4.9-4.2-4.7
		c-2.9,0.1-7.7-2.6-7.4,4c0.1,1.5-7.6,2.6-8.4,1.1c-1.5-2.7-0.8-5.9-0.4-8.8c0.3-2.1,2.3-2.1,4.1-2.1c5.4,0,10.8,0,16.2,0
		c4.5,0,7.8,2.1,9.6,6.2c1.9,4.2,1.8,8.9-1.6,11.7c-4,3.2-3.1,5.5-0.4,8.4C447,47.7,447.1,48.4,447.3,49.1z"/>
	<path class="st6" d="M636.4,108.1c0-6.9,0.1-13.9-0.1-20.8c-0.1-3,0.9-4.3,4-4.2c6.8,0.1,13.5,0,20.3,0.1c1.7,0,3.6-0.1,3.6,2.4
		c0,2.6-2,2.2-3.7,2.2c-5.2,0-10.5,0.1-15.7,0c-2.6-0.1-3.4,0.7-3.6,3.4c-0.7,14.6-0.8,14.6,13.6,14.7c0.8,0,1.7,0,2.5,0
		c1.5,0,2.7,0.4,2.6,2.2c-0.1,1.8-1.3,2.1-2.8,2.1c-4.1,0-8.1,0.1-12.2,0c-2.7-0.1-4,0.6-3.8,3.6c0.2,3.7,0.2,7.4,0,11.1
		c-0.2,3.2,1.2,4,4.1,3.9c5.6-0.2,11.2,0,16.7,0c1.8,0,3.7,0.1,3.5,2.5c-0.1,1.9-1.8,2.2-3.4,2.2c-7.4,0-14.9-0.1-22.3,0
		c-3.1,0.1-3.7-1.4-3.7-4.1C636.4,122.3,636.4,115.2,636.4,108.1z"/>
	<path class="st7" d="M583.7,108.2c0-6.6-0.1-13.2,0.1-19.8c0-1.9-1.3-5,2.2-5.1c3.5-0.1,2.5,2.9,2.5,4.9c0.1,4.9,0.1,9.8,0,14.7
		c-0.1,2.4,0.8,3.2,3.2,3.2c7.6-0.1,15.2-0.1,22.8,0c2.3,0,2.9-0.8,2.9-2.9c-0.1-5.4,0-10.8,0-16.2c0-1.7-0.2-3.6,2.2-3.7
		c2.7-0.1,2.7,1.8,2.7,3.8c0,14.2,0,28.4,0,42.6c0,1.8,0,3.6-2.4,3.7c-2.9,0.1-2.6-2-2.6-3.9c0-5.2-0.1-10.5,0-15.7
		c0.1-2.7-0.9-3.5-3.5-3.4c-7.1,0.1-14.2,0.2-21.3,0c-3-0.1-4.2,0.8-4.1,4c0.2,5.1,0.1,10.1,0,15.2c0,1.9,0,4-2.7,3.8
		c-2.6-0.1-2.1-2.2-2.1-3.8C583.6,122.4,583.7,115.3,583.7,108.2z"/>
	<path class="st4" d="M145.5,49.5c-15.2,0-15.8-0.5-15.7-16c0-10.4,2.1-12.5,12.3-12.5c3.5,0,7.1-0.2,10.6,0.1
		c5.5,0.5,7.9,2.8,8.4,8.2c0.3,3.5,0.3,7.1,0.1,10.6c-0.3,6.9-2.8,9.2-9.7,9.5C149.6,49.6,147.5,49.5,145.5,49.5z M145.1,42.3
		c8.3,0,8.4-0.1,8.4-6.7c0-6.8-0.5-7.4-8.1-7.4c-7.5,0-8.3,0.7-8.3,7.3C137.2,42,137.5,42.3,145.1,42.3z"/>
	<path class="st5" d="M308.8,24c-0.1,1.1,0.1,2.2-1,2.9c-3.9,1.6-8.1,4.7-10.2-2.3c-0.3-1-1.4-0.7-2.2-0.8c-5.4-0.6-9.2,3.1-9.6,9.4
		c-0.4,6,2.8,9.7,8.1,10.1c2.7,0.2,4.3-0.4,3.8-3.5c-0.5-3.8,1-5.5,5.1-5.4c4.4,0.1,4.3,2.7,4.3,5.8c-0.1,11.2,0.7,9.2-9,9.4
		c-2.5,0-5.1,0-7.6,0c-9-0.1-15.3-6.4-15.2-15.3c0.1-8.1,5.5-13,14.8-13.2c3.6-0.1,7.1,0.1,10.7,0C303.9,20.8,306.9,20.8,308.8,24z"
		/>
	<path class="st7" d="M820.2,107.9c0-6.8,0-13.5,0-20.3c0-1.9-0.7-4.5,2.5-4.4c2.8,0.1,2.3,2.4,2.3,4.2c0,4.2-0.2,8.5,0.1,12.7
		c0.1,1.7-1.5,4.7,1.8,4.8c2.8,0.1,6,1.4,8-2.4c3-5.5,6.5-10.7,9.8-16c0.6-1,1.3-2.1,2.1-2.8c1.1-0.9,2.6-1.1,3.8-0.1
		c1.6,1.3,0,2.4-0.6,3.5c-3.4,5.5-6.7,11-10.3,16.3c-1.8,2.6-1.9,4.5-0.2,7.2c3.9,5.9,7.5,12,11.1,18.2c0.7,1.3,2.9,2.9,0.6,4.3
		c-2,1.2-3.8,0-5-2c-3.6-6.1-7.6-12-10.8-18.3c-2.1-4.1-5.3-3.4-8.6-3.3c-2.3,0.1-1.8,2.1-1.8,3.5c-0.1,5.4,0,10.8,0,16.2
		c0,1.8,0.3,4.1-2.4,4.2c-2.9,0.1-2.4-2.2-2.4-4C820.2,122.2,820.2,115.1,820.2,107.9z"/>
	<path class="st5" d="M223.7,21.5c-3.3,4.1-5.9,7.6-8.8,10.8c-1.9,2.1-2.2,3.7-0.1,5.9c3,3.2,5.5,6.7,8.3,10.2
		c-7.6,2-9.3,1.4-13.5-4.5c-0.8-1.1-1.5-2.2-2.4-3.3c-0.6-0.8-1.4-1.6-2.5-1.1c-0.9,0.4-0.8,1.4-0.8,2.2c0,1.2-0.1,2.4,0,3.5
		c0.3,4-2.2,4.2-5.2,4.1c-2.9,0-4.9-0.4-4.8-4.1c0.2-6.7,0.2-13.5,0-20.2c-0.1-3.6,1.7-4.2,4.7-4.2c2.9,0,5.4,0.1,5.4,4.1
		c0,1.9-1.5,5,1.2,5.7c2.4,0.6,3.4-2.6,4.3-4.3C212.6,20.6,217.5,20.6,223.7,21.5z"/>
	<path class="st4" d="M109.9,21.6c2.7,0,5.4,0,8.1,0c6.1,0.1,10.7,4.6,10.9,10.4c0.1,5.7-4.4,10.6-10.4,10.9c-2.4,0.1-4.7,0.1-7.1,0
		c-2.8-0.1-4.9,0-4.6,3.9c0.2,3.5-2.8,2.6-4.8,2.7c-2.2,0.1-4.2-0.1-4.2-3c0-0.2,0-0.3,0-0.5c-1-9.4-1-9.4,8.6-9.4
		c2.2,0,4.4,0,6.6,0c3.1-0.1,5.3-1.4,5.2-4.8c-0.1-3.3-1.9-4.9-5.2-4.8c-2.9,0.1-6.9-1.3-6.1,4.2c0.2,1.2-1,1.7-2.1,1.6
		c-2.3-0.3-5.6,1.3-6.5-0.9c-1.1-2.6-0.9-6.1-0.2-9c0.6-2.4,3.5-1,5.4-1.2C105.5,21.4,107.7,21.6,109.9,21.6z"/>
	<path class="st7" d="M725.1,82.5c2.2-0.1,5.9,0.9,9.3,2.9c1.5,0.9,2.4,1.9,1.4,3.7c-1,1.8-2.3,1.6-3.8,0.6c-3.9-2.4-8-3.3-12.6-2
		c-3.4,1-5.7,3-6.4,6.5c-0.7,3.6,1,6.3,4,8c3.8,2.1,7.9,3.9,11.8,5.8c7.5,3.8,10.3,9.2,8.5,15.8c-1.9,6.7-8.3,10.7-16.1,10
		c-4.4-0.4-8.6-1.7-12.2-4.3c-1.5-1.1-2-2.2-0.8-3.8c1.1-1.5,2.2-1.2,3.5-0.3c2.9,2.2,6.2,3.5,9.8,3.9c5.3,0.6,9.6-1.9,10.9-6.2
		c1.5-5-1.3-8.1-5.2-10.3c-3.2-1.8-6.7-3.2-10-4.8c-7.6-3.8-10.5-8.9-8.9-15.1C709.9,86.5,715.6,82.6,725.1,82.5z"/>
	<path class="st8" d="M121,95.4c3.1-10.5,6.9-20.8,11.1-30.9c7.3,3,14.6,6,22.3,8.1l0.5-0.1c0,2.3-1,4-2.5,5.8
		c-3.1,3.8-7.5,5.1-11.7,6.7c-3.2,1.2-5.2,2.8-4.9,6.5c-1.6,0.6-1.8-1-2.7-1.6c-2.3-1.7-4.2,0.1-5.6,1.5c-0.9,0.9-1.1,3.7,0.2,3.8
		c5,0.3,4.2,3.9,4.5,6.9c-0.4,0-0.7,0-1.1,0.1l0,0C129.3,97.5,124.9,96.8,121,95.4z"/>
	<path class="st4" d="M181,49.3c-13.3,0-19.2-5.3-18.5-16.6c0.4-6.6,4.5-11.1,11.1-11.6c4.9-0.4,9.8,0,14.7-0.2
		c2.7-0.1,3,1.4,2.9,3.5c-0.1,2,0.3,4.4-2.7,4.4c-1.8,0-3.7,0.4-5.4-0.7c-3.4-2.3-7-1.9-9.5,1c-2.9,3.4-2.8,7.7-0.3,11.3
		c2.3,3.3,6.1,3.5,9.5,2c1.8-0.8,3.5-0.9,5.4-0.9c3.3,0.1,2.9,2.5,3,4.7c0.2,2.5-0.8,3.3-3.2,3.1C185.8,49.1,183.4,49.3,181,49.3z"
		/>
	<path class="st5" d="M239.5,49.4c-2.2,0-4.4,0.1-6.6,0c-6.8-0.5-12.2-6.7-12.6-14.2c-0.3-7.7,3.6-12.8,11.1-13.7
		c4.8-0.6,9.8-0.3,14.7-0.3c2.1,0,3.1,1.1,3,3.1c-0.1,2.2-1.5,2.7-3.5,2.7c-2.7-0.1-5.4-0.2-8.1,0.1c-4.7,0.4-7.1,3.3-7,8.2
		c0.1,4.9,2.4,7.6,7.3,7.9c2.9,0.2,5.7,0.1,8.6,0.1c2.1,0,3.1,1.1,3.2,3.1c0,2-0.9,3.1-3.1,3.1C244.3,49.4,241.9,49.4,239.5,49.4
		C239.5,49.4,239.5,49.4,239.5,49.4z"/>
	<path class="st4" d="M406.3,49.4c-13.1,0-19.7-5.9-18.7-16.7c0.5-5.8,3.9-9.7,9.6-11c5.3-1.2,10.8-0.4,16.2-0.5c2,0,3.1,1,3,3.1
		c-0.1,2-1.3,2.6-3,2.6c-2.5,0-5.1-0.1-7.6,0c-5.6,0.3-7.9,2.8-7.8,8.4c0.1,5.3,2.3,7.6,7.8,7.8c2.5,0.1,5.1,0.1,7.6,0
		c2.4-0.1,3.4,1,3.4,3.4c0,2.3-1.3,2.9-3.3,2.9C411,49.4,408.7,49.4,406.3,49.4z"/>
	<path class="st9" d="M149.2,135.5c-2,0-4,0.3-5.7-1.1c-2-3.4-3.7-6.9-4.5-10.9c-0.3-1.6-0.4-3.8-2.8-4.3c-0.1-0.2-0.1-0.5-0.2-0.8
		c0.3-0.8,0.7-1.6,1-2.3c0-2.3,0-4.6,0-6.9c0.1-1.5,0-3.1,2.1-3.2c2.3,0.4,4.6,0.7,6.9,1.1c2.4,1.2,4.8,2.5,7.3,3.7
		c0.3,0.1,0.6,0.3,0.9,0.4l-0.1-0.1c2.2,3.6-0.2,7.1-0.4,10.6C149.6,125.5,150.2,130.8,149.2,135.5z"/>
	<path class="st6" d="M675.3,108.1c0-6.2-0.1-12.5,0.1-18.7c0.1-2.2-1.6-6,2.3-6c4.5,0,2.5,4,2.5,6.3c0.2,11.6,0.2,23.3,0,34.9
		c0,3.2,0.7,4.5,4.2,4.3c5-0.3,10.1-0.1,15.2-0.1c1.6,0,3.7-0.2,3.8,2.2c0,2.4-1.9,2.4-3.6,2.4c-6.9,0-13.8-0.1-20.8,0
		c-2.9,0-3.8-1.3-3.7-4.1C675.4,122.3,675.3,115.2,675.3,108.1z"/>
	<path class="st4" d="M254.9,37.8c0-2.5,0-5,0-7.6c0-1.7,0.3-3.3-2.2-3.6c-1.9-0.2-2-2.1-1.7-3.6c0.3-1.7,1.6-2,3-2
		c5,0,10.1,0,15.1,0c2,0,3.2,0.8,3.1,3c0,2.2-1.4,3.1-3.3,2.8c-4.6-0.8-5.3,1.5-5,5.4c0.3,4.5,0,9.1,0.1,13.6c0.1,3.5-2,3.7-4.6,3.7
		c-2.5,0-4.8,0.1-4.6-3.6C255,43.2,254.9,40.5,254.9,37.8z"/>
	<path class="st6" d="M861.7,108.6c0-7.3,0-14.5,0-21.8c0-1.7-0.1-3.6,2.4-3.7c2.3-0.1,2.7,1.6,2.7,3.4c0,14.4,0,28.7,0,43.1
		c0,1.7,0,3.6-2.4,3.7c-2.9,0.1-2.6-2.1-2.6-3.9C861.7,122.5,861.7,115.5,861.7,108.6z"/>
	<path class="st8" d="M198.7,73c1.4,3.2,2.9,6.5,4.3,9.7c-0.3,0.4-0.7,0.7-1,1.1c-8.6-1.6-17.3-2.3-26.1-3c-0.3-0.4-0.6-0.7-0.9-1.1
		c-0.1-0.3-0.2-0.6-0.1-1l0.4,0l0.4-0.2c4.9-0.3,6.5-3.3,6.3-7.8c0.4-0.4,0.8-0.7,1.2-1.1l-0.1,0.1c0.4-0.3,0.8-0.7,1.2-1l0,0.1
		c2.6-2.2,5.5-2.8,8.8-2.2C194.9,68.7,195.8,71.7,198.7,73z"/>
	<path class="st10" d="M175.7,78.5l-0.4,0.2c0,0-0.4,0-0.4,0c-7.2-0.5-13.2-4.6-20.1-6.2c0,0-0.5,0.1-0.5,0.1
		c-0.1-1.5,1.3-3.7-1.3-4c-4.3-0.4-2.6-2.2-1.2-4c0.9-1.3,1.9-2.7,2.8-4c0.3,0,0.6-0.1,0.9-0.2c-0.1,2.2,2.2,5-1.8,6.6
		c2.2-0.7,5.5,0.9,5.7-2.5c0.1-2-1-4.3-4-4c-0.2-1-0.7-1-1.5-0.5c-1.2,0.2-2.4,0.3-3.6,0.5c0.2-0.6,0.3-1.7,0.5-1.7
		c5.1-0.6,9.1-3.8,13.8-5.2c0.3,0.8,0.7,1.6,1,2.4c-2.4,2.4,1.8,5.1-0.7,7.8c-1.5,1.6-4.5,4.3-2.7,6.1c2,2,4.5-1.5,6.8-2.4
		c0.3-0.1,0.5-0.5,0.7-0.7c0.3,0,0.6-0.1,0.9-0.2c0.6,2.1,1,4.2,1.7,6.2c0.4,1.3,1.3,2.5,2.9,1.5c0.7-0.4,1.2-1.4,1.9-0.3
		c0.6,0.9,0.1,1.5-0.7,2C175.6,76.5,175.8,77.6,175.7,78.5z"/>
	<path class="st7" d="M753.3,108.6c0,6.7,0,13.5,0,20.2c0,2,0.5,4.5-2.7,4.4c-2.8-0.1-2.3-2.4-2.3-4.2c0-13.8,0-27.7,0-41.5
		c0-1.9-0.7-4.5,2.6-4.3c3.1,0.2,2.3,2.8,2.4,4.6C753.3,94.8,753.3,101.7,753.3,108.6z"/>
	<path class="st11" d="M201.2,120.5c-0.8,0.9-1.6,1.7-2.4,2.6c-8.5,4.1-16,9.8-24.1,14.5c-1.5,0.9-2.8,2.6-5,2c0-0.3-0.1-0.6-0.1-1
		c3.3-4.7,2.9-10.4,4-15.6c0.8-3.3,2-5.6,5.9-4.7l0.5-0.1c1.8,3.2,0.7,9,5.9,9.1c4.7,0.1,3.7-5.1,4.9-8.1c0.3,0,0.5,0,0.8-0.1
		C194.8,119.9,198.3,118,201.2,120.5z"/>
	<path class="st12" d="M136.1,118.5c0,0.3,0.1,0.5,0.2,0.8c0.1,4.5-0.3,8.9-1.7,13.2c-5.1-10.8-10.8-21.3-14.9-32.6
		c3.8,0.7,7.4,2.4,11.4,2.3c0,0,0,0,0,0c0.3,0.3,0.6,0.7,0.9,1l0.2-0.1c0.1,0.4,0.2,0.7,0.3,1.1
		C132.7,109.1,131.7,114.5,136.1,118.5z"/>
	<path class="st12" d="M175.7,78.5c0.1-1-0.1-2.1,0.9-2.7c0.7-0.5,1.3-1.2,0.7-2c-0.8-1-1.3-0.1-1.9,0.3c-1.7,1.1-2.5-0.2-2.9-1.5
		c-0.7-2-1.2-4.1-1.7-6.2c3.8-2,7.7-4,8.1-9c3.4-0.6,6.4,0.6,9.4,1.9c-1.1,3.3-4.8,5.5-4,9.5c0,0,0-0.1,0-0.1
		c-0.4,0.3-0.8,0.7-1.2,1c0,0,0.1-0.1,0.1-0.1c-0.4,0.4-0.8,0.7-1.2,1.1C182.2,75.2,180.6,78.2,175.7,78.5z"/>
	<path class="st10" d="M169.7,138.6c0,0.3,0,0.6,0.1,1c-7-0.9-14-1.4-20.6-4.1c1-4.7,0.5-10,4.7-13.6
		C159.2,127.5,164.4,133,169.7,138.6z"/>
	<path class="st13" d="M150.3,60.4c1.2-0.2,2.4-0.3,3.7-0.5c0.2,0.2,0.4,0.5,0.6,0.7c-0.9,1.3-1.9,2.7-2.8,4c-1.3,1.9-3,3.7,1.2,4
		c2.6,0.2,1.2,2.5,1.3,4c-7.6-2.1-15-5.1-22.3-8.1c3-2,6.5-2.8,10-3.4C146.8,64.5,149.3,64.2,150.3,60.4L150.3,60.4z"/>
	<path class="st9" d="M178.7,57.4c-0.4,5-4.3,7-8.1,9c-0.3,0.1-0.6,0.2-0.9,0.2c0-3.8-2.8-6.8-3.2-10.5c2.4,0,4.8,0.1,7.2,0.1
		C175.4,56.6,177.1,57,178.7,57.4z"/>
	<path class="st10" d="M134.5,132.4c1.4-4.3,1.8-8.7,1.7-13.2c2.3,0.5,2.4,2.6,2.8,4.3c0.8,3.9,2.5,7.5,4.5,10.9
		C140.3,134.6,137.1,135,134.5,132.4z"/>
	<path class="st6" d="M240.3,37c-2.7,0.2-4.6-0.3-4.6-3.3c-0.1-3.3,1.9-3.7,4.6-3.7c2.5,0,4.4,0.5,4.4,3.4
		C244.7,36.6,242.8,37.3,240.3,37z"/>
	<path class="st4" d="M407.5,37c-2.4,0.1-4.4,0-4.6-3.2c-0.1-3.3,1.6-3.9,4.4-3.8c2.5,0,4.3,0.5,4.3,3.5
		C411.6,36.4,410,37.2,407.5,37z"/>
	<path class="st11" d="M184.1,68.8c-0.8-4.1,2.9-6.3,4-9.5c2.3,2,4.1,4.3,4.8,7.3C189.6,66,186.7,66.6,184.1,68.8z"/>
	<path class="st14" d="M131,102.1c-4,0.1-7.6-1.5-11.4-2.3c0-1.6,0.4-3.1,1.4-4.5C124.9,96.8,129.3,97.5,131,102.1z"/>
	<path class="st14" d="M452.4,21.1c1.3,0.2,2.3,0.8,2.3,2.1c0,1.6-0.9,2.4-2.5,2.3c-1.4-0.1-2.1-1-2.1-2.3
		C450.2,21.9,451.1,21.3,452.4,21.1z"/>
	<path class="st10" d="M150.4,60.3c-1.1,3.9-3.6,4.1-8.4,0.8C144.7,59.6,147.6,60.7,150.4,60.3z"/>
	<path class="st12" d="M173.8,56.3c-2.4,0-4.8-0.1-7.2-0.1c-0.2-0.2-0.5-0.3-0.9-0.3c-0.3-0.8-0.7-1.6-1-2.4
		C167.9,53.7,171.2,53.8,173.8,56.3z"/>
	<path class="st14" d="M771.8,92.8c0-0.4,0-1.2,0.2-1.3c0.6-0.3,0.7,0.2,0.8,0.7C772.4,92.4,772.1,92.6,771.8,92.8z"/>
	<path class="st13" d="M191.7,119.2c-0.3,0-0.5,0.1-0.8,0.1c-3.6-0.4-7.2-0.7-10.8-1.1c0,0-0.5,0.1-0.5,0.1
		c-0.2-2.1-0.4-4.2-0.5-6.3c5.6-6.4,11.7-12.4,16.7-19.2c2.1-2.9,7-4.2,6.2-9.1c0.3-0.4,0.7-0.7,1-1.1c1.1,3.4,1.2,6.9,0.5,10.2
		c-0.3,1.5-0.1,2.6,0.4,3.8c-2.8,1.5-5.5,3.1-8.4,4.7c1.5,1.5,3.5-0.3,4.7,2.2C195.3,107.5,191.7,112.5,191.7,119.2z"/>
	<path class="st15" d="M191.7,119.2c0.1-6.7,3.7-11.6,8.5-15.5c-1.2-2.4-3.2-0.7-4.7-2.2c2.9-1.6,5.6-3.1,8.4-4.7
		c-0.3,6.8-0.7,13.6-1,20.4c-0.1,1.4-0.1,2.7-1.7,3.2C198.3,118,194.8,119.9,191.7,119.2z"/>
	<path class="st0" d="M319.8,42.2c0.4-5.5,1-10.8,1.2-16c0.1-3.1,1.6-4.4,4.5-5.2c3-0.8,4.7,0.1,6.2,2.7c3,5,6.4,9.9,9.5,14.9
		c0.8,1.3,2.9,2.8,0.9,4.3c-1.9,1.4-4.2,2.1-6.5,0.3c-3.8-3.1-7-2.4-8.7,2c-1,2.6-3.3,3.3-5.3,2.9C317.7,47.3,320.7,44,319.8,42.2z
		 M327.8,29.2c-0.3,0-0.5,0-0.8,0c0,1.8,0,3.6,0,5.5c0,1.5,1,1.4,2.1,1.3c1.3-0.1,1.7-0.8,1.1-2C329.5,32.4,328.7,30.8,327.8,29.2z"
		/>
	<path class="st0" d="M145.1,42.3c-7.6,0-7.9-0.2-7.9-6.8c0-6.6,0.8-7.3,8.3-7.3c7.5,0,8.1,0.5,8.1,7.4
		C153.6,42.2,153.5,42.3,145.1,42.3z"/>
	<path class="st12" d="M154.8,72.5c6.8,1.6,12.9,5.8,20.1,6.2c-0.1,0.3,0,0.7,0.1,1c-1.1,1.3-2.3,2.6-3.4,3.9
		c-10.4,5.5-20.3,11.7-29.6,18.8c-0.6-0.2-1.2-0.3-1.8-0.5c-1-0.4-2-0.8-3.1-1.2c-0.5-3.1-1-6.2-1.5-9.3c-0.3-3.7,1.8-5.3,4.9-6.5
		c4.2-1.6,8.6-2.9,11.7-6.7C153.8,76.5,154.8,74.8,154.8,72.5z"/>
	<path class="st14" d="M135.7,91.5c0.5,3.1,1,6.2,1.5,9.3c-1.7,0.4-3.4,0.8-5.1,1.2l0.1,0c-0.3-3,0.5-6.6-4.5-6.9
		c-1.4-0.1-1.2-2.9-0.2-3.8c1.4-1.4,3.3-3.2,5.6-1.5C133.9,90.5,134.1,92.1,135.7,91.5z"/>
	<path class="st14" d="M132,103.1c-0.3-0.3-0.6-0.7-0.9-1c0.4,0,0.7,0,1.1-0.1c0,0-0.1,0-0.1,0C132,102.4,132,102.7,132,103.1z"/>
	<path class="st11" d="M142,102.5c9.3-7.2,19.2-13.3,29.6-18.8c0.6,3.2,0.4,6.2-2.5,8.2c-5.1,3.5-2.9,7.8-1.6,12.1
		c1.4,4.4,5.2,2.7,8.1,3.3c0.1,0.2,0.1,0.5,0.2,0.7c0,1.2,0,2.3-0.1,3.5c0,5.9,0,5.7-5.6,4.1c-5.3-1.5-10.1-4.4-15.8-4.3
		c0,0,0.1,0.1,0.1,0.1c-0.1-0.6-0.4-0.9-0.9-0.4c-2.4-1.2-4.8-2.5-7.3-3.7C144.8,105.6,143.4,104,142,102.5z"/>
	<path class="st15" d="M154.3,111.2c5.7-0.1,10.6,2.8,15.8,4.3c5.7,1.6,5.6,1.8,5.6-4.1c0-1.2,0-2.3,0.1-3.5
		c3.4-0.5,2.8,2.2,3.3,4.1c0.2,2.1,0.4,4.2,0.5,6.3c-4-0.9-5.1,1.4-5.9,4.7c-1.2,5.2-0.8,10.9-4,15.6c-5.3-5.6-10.5-11.1-15.8-16.7
		C154.1,118.3,156.5,114.9,154.3,111.2z"/>
	<path class="st8" d="M132,103.1c0-0.4,0.1-0.7,0.1-1.1c1.7-0.4,3.4-0.8,5.1-1.2c1,0.4,2,0.8,3.1,1.2c-0.4,1.3-6.4,1.3-1,4
		c-2.1,0.1-2.1,1.7-2.1,3.2c-1.5,2.3-1.4,4.6,0,6.9c-0.3,0.8-0.7,1.6-1,2.3c-4.4-4-3.4-9.3-3.7-14.4c0.3-0.2,0.7-0.4,1-0.7
		c-0.4-0.1-0.9-0.3-1.3-0.4L132,103.1z"/>
	<path class="st13" d="M139.2,106c-5.4-2.8,0.6-2.7,1-4c0.6,0.2,1.2,0.3,1.8,0.5c1.4,1.6,2.8,3.1,4.2,4.7
		C143.9,106.8,141.5,106.4,139.2,106z"/>
	<path class="st13" d="M137.1,116.1c-1.4-2.3-1.4-4.6,0-6.9C137.1,111.5,137.1,113.8,137.1,116.1z"/>
	<path class="st15" d="M153.4,110.9c0.6-0.4,0.8-0.1,0.9,0.4C154.1,111.2,153.7,111,153.4,110.9z"/>
	<path class="st9" d="M179.1,112.1c-0.5-1.8,0.2-4.6-3.3-4.1c-0.1-0.2-0.1-0.5-0.2-0.7c0.1-6.1,0.1-12.2,0.2-18.3
		c3.8,0.6,7.7,1.1,11.5,1.7c2.8,0.4,4.6-0.3,4.6-3.7c-3-0.4-7.1,2-7.9-3.4c-1.6,1.3,0.8,2.9-1.5,3.9c-1.1-5.9-4.3-1.1-6.8-1.3
		c0.1-1.8,0.1-3.7,0.2-5.5c8.7,0.8,17.4,1.4,26.1,3c0.8,4.9-4.1,6.2-6.2,9.1C190.8,99.7,184.7,105.7,179.1,112.1z"/>
	<path class="st13" d="M175.9,80.7c-0.1,1.8-0.1,3.7-0.2,5.5c-0.6,0.5-1.7,0.9-1.8,1.4c-0.2,1,1.1,1,1.8,1.3
		c-0.1,6.1-0.1,12.2-0.2,18.3c-2.9-0.6-6.7,1.1-8.1-3.3c-1.3-4.3-3.5-8.6,1.6-12.1c2.9-2,3.1-5,2.5-8.2c1.1-1.3,2.3-2.6,3.4-3.9
		C175.3,80,175.6,80.4,175.9,80.7z"/>
	<path class="st11" d="M183,69.7c0.4-0.3,0.8-0.7,1.2-1C183.8,69.1,183.4,69.4,183,69.7z"/>
	<path class="st11" d="M181.9,70.8c0.4-0.4,0.8-0.7,1.2-1.1C182.7,70,182.3,70.4,181.9,70.8z"/>
	<path class="st13" d="M165.6,55.8c0.3,0,0.6,0.1,0.9,0.3c0.4,3.7,3.2,6.7,3.2,10.5c-0.2,0.2-0.4,0.6-0.7,0.7
		c-2.3,0.9-4.8,4.4-6.8,2.4c-1.8-1.8,1.3-4.5,2.7-6.1C167.5,61,163.3,58.2,165.6,55.8z"/>
	<path class="st13" d="M155.5,60.4c3-0.4,4.1,2,4,4c-0.2,3.4-3.5,1.8-5.7,2.5C157.7,65.3,155.4,62.6,155.5,60.4L155.5,60.4z"/>
	<path class="st13" d="M155.5,60.3c-0.3,0.1-0.6,0.2-0.9,0.2c-0.2-0.2-0.4-0.4-0.6-0.7C154.7,59.4,155.2,59.4,155.5,60.3
		C155.5,60.4,155.5,60.3,155.5,60.3z"/>
	<path class="st8" d="M180.1,118.2c3.6,0.4,7.2,0.7,10.8,1.1c-1.2,3-0.1,8.2-4.9,8.1C180.8,127.2,181.9,121.4,180.1,118.2z"/>
	<path class="st13" d="M132.2,103c0.4,0.1,0.9,0.3,1.3,0.4c-0.3,0.2-0.7,0.4-1,0.7C132.3,103.7,132.2,103.4,132.2,103z"/>
	<path class="st6" d="M327.8,29.2c0.8,1.6,1.7,3.2,2.5,4.8c0.6,1.2,0.2,1.9-1.1,2c-1.1,0.1-2,0.1-2.1-1.3c0-1.8,0-3.6,0-5.5
		C327.3,29.2,327.6,29.2,327.8,29.2z"/>
	<path class="st11" d="M175.8,89c-0.7-0.3-2-0.3-1.8-1.3c0.1-0.6,1.2-1,1.8-1.4c2.4,0.2,5.7-4.6,6.8,1.3c2.3-1-0.2-2.6,1.5-3.9
		c0.8,5.4,4.9,3,7.9,3.4c-0.1,3.4-1.8,4.2-4.6,3.7C183.4,90.1,179.6,89.6,175.8,89z"/>
</g>
</svg>
